<svg xmlns="http://www.w3.org/2000/svg" width="33.586" height="2" viewBox="0 0 33.586 2">
  <path id="Caminho_28" data-name="Caminho 28" d="M16125.1,614.29h33.586" transform="translate(-16125.096 -613.29)" fill="none" stroke="#fff" stroke-width="2"/>
</svg>
