<svg xmlns="http://www.w3.org/2000/svg" width="19.159" height="11.738" viewBox="0 0 19.159 11.738">
  <path id="Caminho_74" data-name="Caminho 74" d="M16125.1,614.29l8.924,9.583,8.766-9.583" transform="translate(-16124.365 -613.608)" fill="none" stroke="#fff" stroke-width="2"/>
</svg>
