<svg xmlns="http://www.w3.org/2000/svg" width="31" height="31" viewBox="0 0 31 31">
  <path id="instagram" d="M20.667,15.5A5.169,5.169,0,0,0,15.5,10.333,5.169,5.169,0,0,0,10.333,15.5,5.169,5.169,0,0,0,15.5,20.667,5.169,5.169,0,0,0,20.667,15.5Zm2.785,0A7.924,7.924,0,0,1,15.5,23.451,7.924,7.924,0,0,1,7.548,15.5,7.924,7.924,0,0,1,15.5,7.549,7.924,7.924,0,0,1,23.451,15.5Zm2.179-8.274a1.857,1.857,0,1,1-3.168-1.311,1.857,1.857,0,0,1,3.168,1.311ZM15.5,2.785l-1.544-.01q-1.4-.01-2.13,0t-1.948.06a15.916,15.916,0,0,0-2.079.2,8.021,8.021,0,0,0-1.442.375A5.278,5.278,0,0,0,3.411,6.358,8.1,8.1,0,0,0,3.037,7.8a15.916,15.916,0,0,0-.2,2.079q-.05,1.221-.06,1.948t0,2.13q.01,1.4.01,1.544t-.01,1.544q-.01,1.4,0,2.13t.06,1.948a15.916,15.916,0,0,0,.2,2.079,8.051,8.051,0,0,0,.374,1.442,5.278,5.278,0,0,0,2.947,2.947,8.1,8.1,0,0,0,1.443.374,15.916,15.916,0,0,0,2.079.2q1.221.05,1.948.06t2.13,0l1.544-.01,1.544.01q1.4.01,2.13,0t1.948-.06a15.915,15.915,0,0,0,2.079-.2,8.1,8.1,0,0,0,1.443-.374,5.278,5.278,0,0,0,2.947-2.947,8.1,8.1,0,0,0,.374-1.443,15.917,15.917,0,0,0,.2-2.079q.05-1.221.06-1.948t0-2.13q-.01-1.4-.01-1.544t.01-1.544q.01-1.4,0-2.13t-.06-1.948a15.915,15.915,0,0,0-.2-2.079,7.944,7.944,0,0,0-.375-1.442,5.278,5.278,0,0,0-2.947-2.947A8.1,8.1,0,0,0,23.2,3.037a15.916,15.916,0,0,0-2.079-.2q-1.221-.05-1.948-.06t-2.13,0l-1.544.01ZM31,15.5q0,4.622-.1,6.4a9.467,9.467,0,0,1-2.5,6.5,9.467,9.467,0,0,1-6.5,2.5q-1.776.1-6.4.1t-6.4-.1a9.467,9.467,0,0,1-6.5-2.5A9.467,9.467,0,0,1,.1,21.9Q0,20.122,0,15.5T.1,9.1A9.467,9.467,0,0,1,2.6,2.6,9.467,9.467,0,0,1,9.1.1Q10.878,0,15.5,0t6.4.1a9.467,9.467,0,0,1,6.5,2.5,9.467,9.467,0,0,1,2.5,6.5Q31,10.878,31,15.5Z" fill="#fff"/>
</svg>
